Introduction to R@KPU - 情報処理応用演習
…
{tidyverse}はパッケージを集めたパッケージであり、{dplyr}もその一部

library(tidyverse)

実習用データ

countries.csv: 186カ国の社会経済・政治体制のデータ

# Dataフォルダー内のcountries.csvを読み込み、dfという名のオブジェクトとして作業環境に格納
library(tidyverse)
df <- read_csv("Data/countries.csv")
df

# A tibble: 186 × 18
   Country  Population   Area    GDP     PPP GDP_per_capita PPP_per_capita    G7
   <chr>         <dbl>  <dbl>  <dbl>   <dbl>          <dbl>          <dbl> <dbl>
 1 Afghani…   38928346 6.53e5 1.91e4  8.27e4           491.          2125.     0
 2 Albania     2877797 2.74e4 1.53e4  3.97e4          5309.         13781.     0
 3 Algeria    43851044 2.38e6 1.70e5  4.97e5          3876.         11324.     0
 4 Andorra       77265 4.7 e2 3.15e3 NA              40821.            NA      0
 5 Angola     32866272 1.25e6 9.46e4  2.19e5          2879.          6649.     0
 6 Antigua…      97929 4.4 e2 1.73e3  2.08e3         17643.         21267.     0
 7 Argenti…   45195774 2.74e6 4.50e5  1.04e6          9949.         22938.     0
 8 Armenia     2963243 2.85e4 1.37e4  3.84e4          4614.         12974.     0
 9 Austral…   25499884 7.68e6 1.39e6  1.28e6         54615.         50001.     0
10 Austria     9006398 8.24e4 4.46e5  5.03e5         49555.         55824.     0
# ℹ 176 more rows
# ℹ 10 more variables: G20 <dbl>, OECD <dbl>, HDI_2018 <dbl>,
#   Polity_Score <dbl>, Polity_Type <chr>, FH_PR <dbl>, FH_CL <dbl>,
#   FH_Total <dbl>, FH_Status <chr>, Continent <chr>
…
課題の問題には「出力せよ」だけでなく、「格納した上で出力せよ」といった形式もある。加工したデータを引き続き使うためには格納が必須であるため、問題文を注意深く読むこと。

列の選択と変数名の変更

変数名の変更と抽出を同時に行うことも可能

新しい変数名 = 既存の変数名

例) HDI_2018の変数名をHDIに変更

df |>
  select(Country, Population, HDI = HDI_2018)

# A tibble: 186 × 3
   Country             Population   HDI
   <chr>                    <dbl> <dbl>
 1 Afghanistan           38928346 0.496
 2 Albania                2877797 0.791
 3 Algeria               43851044 0.759
 4 Andorra                  77265 0.857
 5 Angola                32866272 0.574
 6 Antigua and Barbuda      97929 0.776
 7 Argentina             45195774 0.83 
 8 Armenia                2963243 0.76 
 9 Australia             25499884 0.938
10 Austria                9006398 0.914
# ℹ 176 more rows

抽出せず、変数名のみ変更

rename()関数を使用

データ |>
  rename(新しい変数名 = 既存の変数名)

例) PopulationをJinkoに、AreaをMensekiに変更

df |>
  rename(Jinko = Population, Menseki = Area)

# A tibble: 186 × 18
   Country      Jinko Menseki    GDP     PPP GDP_per_capita PPP_per_capita    G7
   <chr>        <dbl>   <dbl>  <dbl>   <dbl>          <dbl>          <dbl> <dbl>
 1 Afghanistan 3.89e7  652860 1.91e4  8.27e4           491.          2125.     0
 2 Albania     2.88e6   27400 1.53e4  3.97e4          5309.         13781.     0
 3 Algeria     4.39e7 2381740 1.70e5  4.97e5          3876.         11324.     0
 4 Andorra     7.73e4     470 3.15e3 NA              40821.            NA      0
 5 Angola      3.29e7 1246700 9.46e4  2.19e5          2879.          6649.     0
 6 Antigua an… 9.79e4     440 1.73e3  2.08e3         17643.         21267.     0
 7 Argentina   4.52e7 2736690 4.50e5  1.04e6          9949.         22938.     0
 8 Armenia     2.96e6   28470 1.37e4  3.84e4          4614.         12974.     0
 9 Australia   2.55e7 7682300 1.39e6  1.28e6         54615.         50001.     0
10 Austria     9.01e6   82409 4.46e5  5.03e5         49555.         55824.     0
# ℹ 176 more rows
# ℹ 10 more variables: G20 <dbl>, OECD <dbl>, HDI_2018 <dbl>,
#   Polity_Score <dbl>, Polity_Type <chr>, FH_PR <dbl>, FH_CL <dbl>,
#   FH_Total <dbl>, FH_Status <chr>, Continent <chr>

列の除外

変数名の前に! (推奨)、または-を付ける

2つ以上の変数を除外する場合、変数名をc()でまとめる。

例) dfからGDP_per_capitaとPPP_per_capitaを除外

df |>
  select(!c(GDP_per_capita, PPP_per_capita))

# A tibble: 186 × 16
   Country           Population   Area    GDP     PPP    G7   G20  OECD HDI_2018
   <chr>                  <dbl>  <dbl>  <dbl>   <dbl> <dbl> <dbl> <dbl>    <dbl>
 1 Afghanistan         38928346 6.53e5 1.91e4  8.27e4     0     0     0    0.496
 2 Albania              2877797 2.74e4 1.53e4  3.97e4     0     0     0    0.791
 3 Algeria             43851044 2.38e6 1.70e5  4.97e5     0     0     0    0.759
 4 Andorra                77265 4.7 e2 3.15e3 NA          0     0     0    0.857
 5 Angola              32866272 1.25e6 9.46e4  2.19e5     0     0     0    0.574
 6 Antigua and Barb…      97929 4.4 e2 1.73e3  2.08e3     0     0     0    0.776
 7 Argentina           45195774 2.74e6 4.50e5  1.04e6     0     1     0    0.83 
 8 Armenia              2963243 2.85e4 1.37e4  3.84e4     0     0     0    0.76 
 9 Australia           25499884 7.68e6 1.39e6  1.28e6     0     1     1    0.938
10 Austria              9006398 8.24e4 4.46e5  5.03e5     0     0     1    0.914
# ℹ 176 more rows
# ℹ 7 more variables: Polity_Score <dbl>, Polity_Type <chr>, FH_PR <dbl>,
#   FH_CL <dbl>, FH_Total <dbl>, FH_Status <chr>, Continent <chr>

隣接する列の同時選択

:を使用

CountryからPPPまでの列: Country:PPP

Country:PPPはCountry, Population, Area, GDP, PPPと同じ意味

例) dfのCountry〜PPP, HDI_2018列を抽出

df |>
  select(Country:PPP, HDI_2018)

# A tibble: 186 × 6
   Country             Population    Area      GDP      PPP HDI_2018
   <chr>                    <dbl>   <dbl>    <dbl>    <dbl>    <dbl>
 1 Afghanistan           38928346  652860   19101.   82737.    0.496
 2 Albania                2877797   27400   15278.   39658.    0.791
 3 Algeria               43851044 2381740  169988.  496572.    0.759
 4 Andorra                  77265     470    3154.      NA     0.857
 5 Angola                32866272 1246700   94635.  218533.    0.574
 6 Antigua and Barbuda      97929     440    1728.    2083.    0.776
 7 Argentina             45195774 2736690  449663. 1036721.    0.83 
 8 Armenia                2963243   28470   13673.   38446.    0.76 
 9 Australia             25499884 7682300 1392681. 1275027.    0.938
10 Austria                9006398   82409  446315.  502771.    0.914
# ℹ 176 more rows
…
特定の文字列で始まる列を選択: starts_with()

例)FHで始まる列の選択: starts_with("FH")

特定の文字列で終わる列を選択: ends_with()

特定の文字列を含む列を選択: contains()

例) dfからCountry, "FH"で始まる列を抽出

df |>
  select(Country, starts_with("FH"))

# A tibble: 186 × 5
   Country             FH_PR FH_CL FH_Total FH_Status
   <chr>               <dbl> <dbl>    <dbl> <chr>    
 1 Afghanistan            13    14       27 NF       
 2 Albania                27    40       67 PF       
 3 Algeria                10    24       34 NF       
 4 Andorra                39    55       94 F        
 5 Angola                 11    21       32 NF       
 6 Antigua and Barbuda    33    52       85 F        
 7 Argentina              35    50       85 F        
 8 Armenia                21    32       53 PF       
 9 Australia              40    57       97 F        
10 Austria                37    56       93 F        
# ℹ 176 more rows

応用) !starts_with("FH"): "FH"で始まる列を除外

列の順番変更: select()使用

抽出後のデータフレームにおける変数はselect()内で指定された順番に

例) G7からOECD列をCountryとPopulationの間へ移動

df |>
  select(Country, G7:OECD,
         Population:PPP_per_capita, HDI_2018:Continent)

# A tibble: 186 × 18
   Country        G7   G20  OECD Population   Area    GDP     PPP GDP_per_capita
   <chr>       <dbl> <dbl> <dbl>      <dbl>  <dbl>  <dbl>   <dbl>          <dbl>
 1 Afghanistan     0     0     0   38928346 6.53e5 1.91e4  8.27e4           491.
 2 Albania         0     0     0    2877797 2.74e4 1.53e4  3.97e4          5309.
 3 Algeria         0     0     0   43851044 2.38e6 1.70e5  4.97e5          3876.
 4 Andorra         0     0     0      77265 4.7 e2 3.15e3 NA              40821.
 5 Angola          0     0     0   32866272 1.25e6 9.46e4  2.19e5          2879.
 6 Antigua an…     0     0     0      97929 4.4 e2 1.73e3  2.08e3         17643.
 7 Argentina       0     1     0   45195774 2.74e6 4.50e5  1.04e6          9949.
 8 Armenia         0     0     0    2963243 2.85e4 1.37e4  3.84e4          4614.
 9 Australia       0     1     1   25499884 7.68e6 1.39e6  1.28e6         54615.
10 Austria         0     0     1    9006398 8.24e4 4.46e5  5.03e5         49555.
# ℹ 176 more rows
# ℹ 9 more variables: PPP_per_capita <dbl>, HDI_2018 <dbl>, Polity_Score <dbl>,
#   Polity_Type <chr>, FH_PR <dbl>, FH_CL <dbl>, FH_Total <dbl>,
#   FH_Status <chr>, Continent <chr>
列の順番変更: relocate()使用

relocate()の使い方

.after = XXX: XXX列の後ろへ移動 / .before = YYY: YYY列の前へ移動

データ |>
  relocate(移動したい変数名, .after = 変更先)

例) G7からOECD列をCountryの後ろへ移動

df |>
  relocate(G7:OECD, .after = Country) # .before = PopulationもOK

# A tibble: 186 × 18
   Country        G7   G20  OECD Population   Area    GDP     PPP GDP_per_capita
   <chr>       <dbl> <dbl> <dbl>      <dbl>  <dbl>  <dbl>   <dbl>          <dbl>
 1 Afghanistan     0     0     0   38928346 6.53e5 1.91e4  8.27e4           491.
 2 Albania         0     0     0    2877797 2.74e4 1.53e4  3.97e4          5309.
 3 Algeria         0     0     0   43851044 2.38e6 1.70e5  4.97e5          3876.
 4 Andorra         0     0     0      77265 4.7 e2 3.15e3 NA              40821.
 5 Angola          0     0     0   32866272 1.25e6 9.46e4  2.19e5          2879.
 6 Antigua an…     0     0     0      97929 4.4 e2 1.73e3  2.08e3         17643.
 7 Argentina       0     1     0   45195774 2.74e6 4.50e5  1.04e6          9949.
 8 Armenia         0     0     0    2963243 2.85e4 1.37e4  3.84e4          4614.
 9 Australia       0     1     1   25499884 7.68e6 1.39e6  1.28e6         54615.
10 Austria         0     0     1    9006398 8.24e4 4.46e5  5.03e5         49555.
# ℹ 176 more rows
# ℹ 9 more variables: PPP_per_capita <dbl>, HDI_2018 <dbl>, Polity_Score <dbl>,
#   Polity_Type <chr>, FH_PR <dbl>, FH_CL <dbl>, FH_Total <dbl>,
#   FH_Status <chr>, Continent <chr>
…
欠損値が含まれた行の除外

dfのPPPが欠損している行を除外し、CountryからPPP列まで出力

否定を意味する!を使用する

df |>
  filter(!is.na(PPP)) |>
  select(Country:PPP)

# A tibble: 178 × 5
   Country             Population    Area      GDP      PPP
   <chr>                    <dbl>   <dbl>    <dbl>    <dbl>
 1 Afghanistan           38928346  652860   19101.   82737.
 2 Albania                2877797   27400   15278.   39658.
 3 Algeria               43851044 2381740  169988.  496572.
 4 Angola                32866272 1246700   94635.  218533.
 5 Antigua and Barbuda      97929     440    1728.    2083.
 6 Argentina             45195774 2736690  449663. 1036721.
 7 Armenia                2963243   28470   13673.   38446.
 8 Australia             25499884 7682300 1392681. 1275027.
 9 Austria                9006398   82409  446315.  502771.
10 Azerbaijan            10139177   82658   48048.  144556.
# ℹ 168 more rows

もう一つの方法

drop_na()関数を利用

()内で指定した変数が欠損している行をすべて除外（複数指定可）

df |>
  drop_na(PPP, Polity_Score) |> # PPPとPolity_Scoreどちらか欠損した行を除外
  select(Country:PPP, Polity_Score)

# A tibble: 155 × 6
   Country     Population    Area      GDP      PPP Polity_Score
   <chr>            <dbl>   <dbl>    <dbl>    <dbl>        <dbl>
 1 Afghanistan   38928346  652860   19101.   82737.           -1
 2 Albania        2877797   27400   15278.   39658.            9
 3 Algeria       43851044 2381740  169988.  496572.            2
 4 Angola        32866272 1246700   94635.  218533.           -2
 5 Argentina     45195774 2736690  449663. 1036721.            9
 6 Armenia        2963243   28470   13673.   38446.            7
 7 Australia     25499884 7682300 1392681. 1275027.           10
 8 Austria        9006398   82409  446315.  502771.           10
 9 Azerbaijan    10139177   82658   48048.  144556.           -7
10 Bahrain        1701575     760   38574.   74230.          -10
# ℹ 145 more rows
…
変数名1を基準にソートし、同点の場合は変数名2を基準に

行のソート: 例

例) dfからContinentの値が"Africa"の行のみを抽出し、Polity_Scoreが高い行を上位にする。そして、CountryとPPP_per_capita、Polity_Score列のみ残す。

Polity Scoreが高い (低い) = より民主主義 (権威主義)に近い

df |>
  filter(Continent == "Africa") |>
  arrange(desc(Polity_Score)) |>
  select(Country, PPP_per_capita, Polity_Score)

# A tibble: 54 × 3
   Country      PPP_per_capita Polity_Score
   <chr>                 <dbl>        <dbl>
 1 Mauritius            22637.           10
 2 Kenya                 4105.            9
 3 South Africa         12605.            9
 4 Botswana             17311.            8
 5 Ghana                 5097.            8
 6 Lesotho               3019.            8
 7 Benin                 3067.            7
 8 Liberia               1461.            7
 9 Nigeria               5018.            7
10 Senegal               3248.            7
# ℹ 44 more rows
…
dfからアフリカのみを抽出し、Polity_Scoreが低い行を上位に

Polity_Scoreが同点の場合、PPP_per_capitaが高い行を上位に

CountryとPolity_Score, PPP_per_capita列のみ残す

Polity_ScoreはPolityに、PPP_per_capitaはPPPと名前を変更

df |>
  filter(Continent == "Africa") |>
  arrange(Polity_Score, desc(PPP_per_capita)) |>
  select(Country, Polity = Polity_Score, PPP = PPP_per_capita)

# A tibble: 54 × 3
   Country             Polity    PPP
   <chr>                <dbl>  <dbl>
 1 Eswatini                -9  8634.
 2 Eritrea                 -7  1860.
 3 Equatorial Guinea       -6 19458.
 4 Egypt                   -4 11198.
 5 Morocco                 -4  7554.
 6 Sudan                   -4  4063.
 7 Cameroon                -4  3506.
 8 Congo (Brazzaville)     -4  3191.
 9 Comoros                 -3  3007.
10 Rwanda                  -3  2008.
# ℹ 44 more rows
…
{dplyr}の例

例) dfのPopulationをAreaで割り（人口密度）、Densityという名の列として追加する

新しく追加された列は最後に位置する

ただし、上書きの場合、位置はそのまま

df |>
  mutate(Density = Population / Area) |>
  print(n = 5) # 最初の5行のみ出力

# A tibble: 186 × 19
  Country   Population   Area    GDP     PPP GDP_per_capita PPP_per_capita    G7
  <chr>          <dbl>  <dbl>  <dbl>   <dbl>          <dbl>          <dbl> <dbl>
1 Afghanis…   38928346 6.53e5 1.91e4  82737.           491.          2125.     0
2 Albania      2877797 2.74e4 1.53e4  39658.          5309.         13781.     0
3 Algeria     43851044 2.38e6 1.70e5 496572.          3876.         11324.     0
4 Andorra        77265 4.7 e2 3.15e3     NA          40821.            NA      0
5 Angola      32866272 1.25e6 9.46e4 218533.          2879.          6649.     0
# ℹ 181 more rows
# ℹ 11 more variables: G20 <dbl>, OECD <dbl>, HDI_2018 <dbl>,
#   Polity_Score <dbl>, Polity_Type <chr>, FH_PR <dbl>, FH_CL <dbl>,
#   FH_Total <dbl>, FH_Status <chr>, Continent <chr>, Density <dbl>

新しい列の位置指定

mutate()内に.after、または.beforeを指定

relocate()関数と同じ仕組み（第9回）

例) PopulationをAreaで割り、Densityという名の新しい列Areaの後に追加する。

df |>
  mutate(Density = Population / Area, 
         .after  = Area)

# A tibble: 186 × 19
   Country             Population    Area Density     GDP     PPP GDP_per_capita
   <chr>                    <dbl>   <dbl>   <dbl>   <dbl>   <dbl>          <dbl>
 1 Afghanistan           38928346  652860   59.6   1.91e4  8.27e4           491.
 2 Albania                2877797   27400  105.    1.53e4  3.97e4          5309.
 3 Algeria               43851044 2381740   18.4   1.70e5  4.97e5          3876.
 4 Andorra                  77265     470  164.    3.15e3 NA              40821.
 5 Angola                32866272 1246700   26.4   9.46e4  2.19e5          2879.
 6 Antigua and Barbuda      97929     440  223.    1.73e3  2.08e3         17643.
 7 Argentina             45195774 2736690   16.5   4.50e5  1.04e6          9949.
 8 Armenia                2963243   28470  104.    1.37e4  3.84e4          4614.
 9 Australia             25499884 7682300    3.32  1.39e6  1.28e6         54615.
10 Austria                9006398   82409  109.    4.46e5  5.03e5         49555.
# ℹ 176 more rows
# ℹ 12 more variables: PPP_per_capita <dbl>, G7 <dbl>, G20 <dbl>, OECD <dbl>,
#   HDI_2018 <dbl>, Polity_Score <dbl>, Polity_Type <chr>, FH_PR <dbl>,
#   FH_CL <dbl>, FH_Total <dbl>, FH_Status <chr>, Continent <chr>
…
Share_Popが大きい順で行を並び替える

変数の計算いろいろ（1）

df |> 
  # Total_Popを作らずにShare_Pop作成時に直接sum(Population)を入れてもOK
  mutate(Total_Pop = sum(Population),
         Share_Pop = Population / Total_Pop * 100,
         .after    = Population) |>
  select(Country:Share_Pop) |>
  select(!Total_Pop) |>
  arrange(desc(Share_Pop))

# A tibble: 186 × 3
   Country       Population Share_Pop
   <chr>              <dbl>     <dbl>
 1 China         1447470092     18.6 
 2 India         1380004385     17.8 
 3 United States  334308644      4.31
 4 Indonesia      273523615      3.52
 5 Pakistan       220892340      2.85
 6 Brazil         212559417      2.74
 7 Nigeria        206139589      2.66
 8 Bangladesh     164689383      2.12
 9 Russia         145934462      1.88
10 Mexico         128932753      1.66
# ℹ 176 more rows
…
Wide型からLong型へ

整然なCOVID_dfの構造は?

5列を1列にまとめるため、縦に長くなる

WideからLongへ

# A tibble: 25 × 4
   Country Population Date       New_Cases
   <chr>        <dbl> <chr>          <dbl>
 1 China   1447470092 2022/06/09       819
 2 China   1447470092 2022/06/10       848
 3 China   1447470092 2022/06/11      1114
 4 China   1447470092 2022/06/12       990
 5 China   1447470092 2022/06/13       957
 6 Japan    126476461 2022/06/09     16788
 7 Japan    126476461 2022/06/10     15584
 8 Japan    126476461 2022/06/11     15338
 9 Japan    126476461 2022/06/12     13381
10 Japan    126476461 2022/06/13      7942
# ℹ 15 more rows
…
pivot_longer(): WideからLongへ

cols = starts_with("2022")もOK

COVID_Long <- COVID_df |> 
  pivot_longer(cols      = "2022/06/09":"2022/06/13",
               names_to  = "Date",
               values_to = "New_Cases")
COVID_Long

# A tibble: 25 × 4
   Country Population Date       New_Cases
   <chr>        <dbl> <chr>          <dbl>
 1 China   1447470092 2022/06/09       819
 2 China   1447470092 2022/06/10       848
 3 China   1447470092 2022/06/11      1114
 4 China   1447470092 2022/06/12       990
 5 China   1447470092 2022/06/13       957
 6 Japan    126476461 2022/06/09     16788
 7 Japan    126476461 2022/06/10     15584
 8 Japan    126476461 2022/06/11     15338
 9 Japan    126476461 2022/06/12     13381
10 Japan    126476461 2022/06/13      7942
# ℹ 15 more rows
…
例) Date列を"/"を基準に分割する

データ |>
  separate(col  = "分割する列名",
           into = c("分割後の列名1", "分割後の列名2", ...),
           sep  = "分割する基準")

separate(): 列の分割

COVID_Long |>
  separate(col  = "Date",
           into = c("Year", "Month", "Day"),
           sep  = "/")

# A tibble: 25 × 6
   Country Population Year  Month Day   New_Cases
   <chr>        <dbl> <chr> <chr> <chr>     <dbl>
 1 China   1447470092 2022  06    09          819
 2 China   1447470092 2022  06    10          848
 3 China   1447470092 2022  06    11         1114
 4 China   1447470092 2022  06    12          990
 5 China   1447470092 2022  06    13          957
 6 Japan    126476461 2022  06    09        16788
 7 Japan    126476461 2022  06    10        15584
 8 Japan    126476461 2022  06    11        15338
 9 Japan    126476461 2022  06    12        13381
10 Japan    126476461 2022  06    13         7942
# ℹ 15 more rows
…
